…
    ## # A tibble: 1 × 1
    ##   aisle_count
    ##         <int>
    ## 1         134

``` r
instacart %>% 
  group_by(aisle) %>% 
  summarize(aisle_cal = n()) %>% 
  mutate(aisle_rank = min_rank(desc(aisle_cal))) %>% 
  arrange(desc(aisle_cal))
```

    ## # A tibble: 134 × 3
    ##    aisle                         aisle_cal aisle_rank
    ##    <chr>                             <int>      <int>
    ##  1 fresh vegetables                 150609          1
    ##  2 fresh fruits                     150473          2
    ##  3 packaged vegetables fruits        78493          3
    ##  4 yogurt                            55240          4
    ##  5 packaged cheese                   41699          5
    ##  6 water seltzer sparkling water     36617          6
    ##  7 milk                              32644          7
    ##  8 chips pretzels                    31269          8
    ##  9 soy lactosefree                   26240          9
    ## 10 bread                             23635         10
    ## # … with 124 more rows
…
